184 -24 -16 176 -16 40 -8 24 -40 96 -24 -16 -32 192
8 -8 960
16 -32 32 -32 -8 56 -32 24 -32 8 -32 40 -40 -32 48 -16 -24 40 -32 -16 32 -8 40 -16 112
16 -8 24 -32 880
24 -32 -16 32 -40 8 -8 -16 8 -8 40 -32 -8 -32 -32 -32 -16 -32 -16 -40 152 -16 -8 160
-24 -32 56 -40 128 -24 640
24 -24 80 -40 40 -8 40 -32 -40 -24 72 -16 48 -24 368
-16 40 -8 40 -40 -40 -24 -40 -32 -32 32 -24 -16 -8 -32 88 -16 32 -16 16 -24 -16 -24 152
-32 32 -40 16 -32 8 -8 -40 -16 -40 -16 -32 24 -32 -32 -32 -16 408
256 -32 688
16 -8 8 -16 32 -40 824
-32 32 -8 -24 -8 -40 800
-32 280 -16 640
-8 -8 -32 24 -40 -8 -8 24 -24 -8 -24 40 -40 -8 584
40 -32 -16 -32 -40 112 -24 -8 -40 -16 8 -24 -32 -8 -24 416
-24 -24 8 -24 -32 -24 -32 -40 -40 -24 32 -8 -40 152 -16 -40 304
-40 8 -24 -32 -40 -40 -16 -32 -40 -16 -32 -32 -8 32 -32 -24 -24 -24 -40 -8 -16 32 -8 -8 -40 -8 -8 -32 -16 -48
-32 -16 -32 -32 -24 24 -32 -32 -8 -40 -40 -32 -8 536
-40 -32 32 -24 -40 -32 96 -24 48 -32 32 -24 -32 -24 368
-16 104 -24 -16 -24 56 -40 -16 16 -32 -24 -32 -40 24 -16 -40 -24 -24 -32 -16 -24 -8 168
