40 -24 912
72 -24 880
72 -56 848
-136 848
992
-24 -56 -16 -40 -64 -48 -104 -176 400
-16 -16 -16 -16 -16 -16 64 -16 -16 -16 -16 -16 -16 632
-40 -24 -128 776
-184 800
-192 792
64 -64 848
-24 -48 -96 800
56 -24 -40 24 -8 -8 -8 -8 -8 -16 712
-8 -8 -8 -8 -8 -8 -8 -8 -8 -8 -8 -8 -8 -8 -8 -8 -8 -8 -8 -8 -8 -8 -8 -8 608
96 -56 824
-8 -16 -24 -48 -40 -32 776
992
-32 -72 -24 -24 808
992
992
40 -56 -48 824
-48 -64 -80 776
